select cdr.src,cdr.dst,cdr.billsec
from cdr inner join  client_toll_free on cdr.dst= client_toll_free.toll_free_number
where  client_toll_free.client_id=71 and  cdr.calldate between '2016-03-01 00:00:00' and '2016-03-31 23:59:59' 
and cdr.disposition='answered' and cdr.billsec>0 

select cdr.src,cdr.dst,cdr.billsec,
			CASE
				WHEN cdr.dst LIKE '00%' THEN  'isd'
				ELSE 'local'
			END as 'call_type',
			CASE
				WHEN cdr.dst LIKE '00%' THEN  
					   (
							SELECT concat(id,',',`prefix`,',',rate) FROM isd_rate_chart
							WHERE SUBSTR(cdr.dst, 3) LIKE CONCAT(`prefix`,'%') 
							ORDER BY `prefix` DESC
							LIMIT 1
						)
				ELSE 	(
							SELECT concat(id,',',prefix,',',rate,',',pulse,',',is_short_code) FROM special_rate_chart
							WHERE cdr.dst LIKE CONCAT(prefix,'%')
							ORDER BY prefix DESC
							LIMIT 1
						)
			END as `required_data`
			
			 from cdr inner join  client_toll_free on cdr.src= client_toll_free.toll_free_number where  client_toll_free.client_id=71 
  and  cdr.calldate between '2016-03-01 00:00:00' and '2016-03-31 23:59:59' 
  and cdr.disposition='answered' and cdr.billsec>0 
  
  
  select cdr.src,cdr.dst,cdr.billsec,ceil(cdr.billsec/60)as pulse,((ceil(cdr.billsec/60))*.6 )as `amount`, 
			CASE
				WHEN cdr.dst LIKE '00%' THEN  'isd'
				ELSE 'local'
			END as 'call_type', 
			CASE
				WHEN cdr.dst LIKE '00%' THEN  
					   (
							SELECT concat(id,',',`prefix`,',',rate) FROM isd_rate_chart
							WHERE SUBSTR(cdr.dst, 3) LIKE CONCAT(`prefix`,'%') 
							ORDER BY `prefix` DESC
							LIMIT 1
						)
				ELSE 	(
							SELECT concat(id,',',prefix,',',rate,',',pulse,',',is_short_code) FROM special_rate_chart
							WHERE cdr.dst LIKE CONCAT(prefix,'%')
							ORDER BY prefix DESC
							LIMIT 1
						)
			END as `required_data` 
			
			 from cdr inner join  client_toll_free on cdr.src= client_toll_free.toll_free_number where  client_toll_free.client_id=84 
  and  cdr.calldate between '2016-03-01 00:00:00' and '2016-03-31 23:59:59' 
  and cdr.disposition='answered' and cdr.billsec>0 