Product Name,Product Category,Product ID,Unit Price,Description,Created_by,created_date,modified_by,modified_date
"56"" Ceiling Fan - White",Energy Efficient Ceiling Fan,E36556DWW,2750,"Brand: 	Energypac 	
Fan Size: 	1400mm (56 Inch) 	
Rated Voltage: 	220 V	
Frequency: 	50hz	
Rated RPM: 	300 RPM 	
Power (W):	65W	
Air Delivery: 	250m³/minute	
Power Factor (PF):	0.95	
Insulation Type:	Type ‘E’	
Warranty:	10 Years	
Color:	White, Crescent White, Maroon, Green	
Service Value:	3.84m³/minute/watt	
Armature & Rotor:	100% Silicon Sheet	
Copper wire: 	100% Copper 	
Paint TYPE:	Powder Coated	
Surface Temperature:	< 45⁰C	
Additional Safety:	Safety String	
Blade Shape: 	Aerodynamic	
Fan Blade:	Aluminum	
Payback Period:	2.5 Years 	
Product Weight (Fan + Blade):	4.35 kg	
Gross Weight:	5.02 kg	
Packing Quantity  (1 set ):	Motor, Down Rod, Canopy, 3 nos. Blades, shackle, Safety String, Fixing Accessories, Warranty Card & User Manual",,,,
"56"" - Crescent White with Golden Border",Energy Efficient Ceiling Fan,E36556CRW,2750,,,,,
"56"" - Crescent White with Golden Border & Show Cap",Energy Efficient Ceiling Fan,E36556CWS,2750,,,,,
"56"" - DT White with Golden Border",Energy Efficient Ceiling Fan,E36556DTW,2750,,,,,
"56"" - DT White with Golden Border & Show Cap",Energy Efficient Ceiling Fan,E36556DWS,2750,,,,,
"56"" - Maroon with Golden Border & Show Cap",Energy Efficient Ceiling Fan,E36556MNS,2750,,,,,
"56"" - Maroon with Golden Border ",Energy Efficient Ceiling Fan,E36556MRN,2750,,,,,
"56"" - NT Green with Golden Border  & Show Cap",Energy Efficient Ceiling Fan,E36556NGS,2750,,,,,
"56"" - NT Green with Golden Border ",Energy Efficient Ceiling Fan,E36556NTG,2750,,,,,
"56"" - Crescent White - Deluxe Fan",Energy Efficient Ceiling Fan,E36556CWSD,2850,,,,,
1 Gang 1 Way Switch,EG MFG Brand Switches & Sockets,E41011,85,,,,,
1 Gang 2 Way Switch,EG MFG Brand Switches & Sockets,E41012,100,,,,,
2 Gang 1 Way Switch,EG MFG Brand Switches & Sockets,E41021,140,,,,,
2 Gang 2 Way Switch,EG MFG Brand Switches & Sockets,E41022,150,,,,,
3 Gang 1 Way Switch,EG MFG Brand Switches & Sockets,E41031,180,,,,,
3 Gang 2 Way Switch,EG MFG Brand Switches & Sockets,E41032,195,,,,,
4 Gang 1 Way Switch,EG MFG Brand Switches & Sockets,E41041,240,,,,,
4 Gang 2 Way Switch,EG MFG Brand Switches & Sockets,E41042,260,,,,,
10A 2 Pin Socket + Switch,EG MFG Brand Switches & Sockets,E4102S,240,,,,,
13A 3 Pin Socket + Switch (Flat),EG MFG Brand Switches & Sockets,E4133S,310,,,,,
Universal Socket + Switch,EG MFG Brand Switches & Sockets,E413CS,330,,,,,
15A 3 Pin Socket with Switch,EG MFG Brand Switches & Sockets,E4153S,310,,,,,
TV Socket,EG MFG Brand Switches & Sockets,E400TV,170,,,,,
Telephone Socket,EG MFG Brand Switches & Sockets,E400TP,185,,,,,
Bell Push ,EG MFG Brand Switches & Sockets,E400BP,130,,,,,
Fan  Controller with Switch,EG MFG Brand Switches & Sockets,E410FRW,250,,,,,
32A DP Switch,EG MFG Brand Switches & Sockets,E432DP,600,,,,,
Data Socket,EG MFG Brand Switches & Sockets,E400DS,300,,,,,
Blank Plate,EG MFG Brand Switches & Sockets,A3000,60,,,,,
Universal Socket + Switch with USB,EG MFG Brand Switches & Sockets,E413US,500,,,,,
1 Gang 1 Way Switch,"ENERGYPAC Brand ""Elegant Series"" Switches & Sockets",E21011,75,,,,,
1 Gang 2 Way Switch,"ENERGYPAC Brand ""Elegant Series"" Switches & Sockets",E21012,90,,,,,
2 Gang 1 Way Switch,"ENERGYPAC Brand ""Elegant Series"" Switches & Sockets",E21021,110,,,,,
2 Gang 2 Way Switch,"ENERGYPAC Brand ""Elegant Series"" Switches & Sockets",E21022,130,,,,,
3 Gang 1 Way Switch,"ENERGYPAC Brand ""Elegant Series"" Switches & Sockets",E21031,140,,,,,
3 Gang 2 Way Switch,"ENERGYPAC Brand ""Elegant Series"" Switches & Sockets",E21032,180,,,,,
4 Gang 1 Way Switch,"ENERGYPAC Brand ""Elegant Series"" Switches & Sockets",E21041,200,,,,,
4 Gang 2 Way Switch,"ENERGYPAC Brand ""Elegant Series"" Switches & Sockets",E21042,240,,,,,
10A 2 Pin Socket with Switch,"ENERGYPAC Brand ""Elegant Series"" Switches & Sockets",E2102S,200,,,,,
13A 3 Pin Socket with Switch ,"ENERGYPAC Brand ""Elegant Series"" Switches & Sockets",E2133S,245,,,,,
15A 3 Pin Socket with Switch,"ENERGYPAC Brand ""Elegant Series"" Switches & Sockets",E2153S,245,,,,,
Multi-Standard Socket,"ENERGYPAC Brand ""Elegant Series"" Switches & Sockets",E213CS,275,,,,,
TV Socket,"ENERGYPAC Brand ""Elegant Series"" Switches & Sockets",E200TVS,150,,,,,
Telephone Socket,"ENERGYPAC Brand ""Elegant Series"" Switches & Sockets",E200TS,160,,,,,
Bell Push ,"ENERGYPAC Brand ""Elegant Series"" Switches & Sockets",E200BP,110,,,,,
Fan  Controller with Switch,"ENERGYPAC Brand ""Elegant Series"" Switches & Sockets",E210FR,250,,,,,
DP Switch,"ENERGYPAC Brand ""Elegant Series"" Switches & Sockets",E220DP,475,,,,,
Data Socket,"ENERGYPAC Brand ""Elegant Series"" Switches & Sockets",E200DS,260,,,,,
Blank Plate,"ENERGYPAC Brand ""Elegant Series"" Switches & Sockets",E200BLP,50,,,,,
Universal Socket + Switch with USB,"ENERGYPAC Brand ""Elegant Series"" Switches & Sockets",E213US,500,,,,,
1 Gang 1 Way Switch,EG 2 White Switches & Sockets,MGS2001/W,125,,,,,
1 Gang 2 Way Switch,EG 2 White Switches & Sockets,MGS2002/W,140,,,,,
2 Gang 1 Way Switch,EG 2 White Switches & Sockets,MGS2003/W,190,,,,,
2 Gang 2 Way Switch ,EG 2 White Switches & Sockets,MGS2004/W,205,,,,,
3 Gang 1 Way Switch ,EG 2 White Switches & Sockets,MGS2005/W,255,,,,,
4 Gang 1 Way Switch,EG 2 White Switches & Sockets,MGS2036/W,305,,,,,
Universal Socket + Switch,EG 2 White Switches & Sockets,MGS2044/W,375,,,,,
Universal Socket + with USB,EG 2 White Switches & Sockets,MGS2040/W,575,,,,,
2 Pin Socket with Switch,EG 2 White Switches & Sockets,MGS2051/W,250,,,,,
13A 3 Pin Socket with Switch,EG 2 White Switches & Sockets,MGS2034/W,325,,,,,
15A 3 Pin Socket with Switch,EG 2 White Switches & Sockets,MGS2052/W,325,,,,,
Fan Speed Controller,EG 2 White Switches & Sockets,MGS2019/W,420,,,,,
45A DP Switch,EG 2 White Switches & Sockets,MGS2050/W,750,,,,,
Telephone Socket ,EG 2 White Switches & Sockets,MGS2025/W,225,,,,,
Data Socket  ,EG 2 White Switches & Sockets,MGS2027/W,315,,,,,
Bell Push,EG 2 White Switches & Sockets,MGS2007/W,155,,,,,
TV Socket,EG 2 White Switches & Sockets,MGS2021/W,200,,,,,
Blank Plate,EG 2 White Switches & Sockets,MGS2039/W,90,,,,,
30 Watt LED Flood Light -6500k,LED Floodlight,CNFL-LED-30W,3500,,,,,
50 Watt LED Flood Light -6500k,LED Floodlight,CNFL-LED-50W,4700,,,,,
100 Watt LED Flood Light -6500k,LED Floodlight,CNFL-LED-100W,9900,,,,,
150 Watt LED Flood Light -6500k,LED Floodlight,CNFL-LED-150W,14500,,,,,
200 Watt LED Flood Light -6500k,LED Floodlight,CNFL-LED-200W,23000,,,,,
Rechargable LED Tube Light -3.2W-6500K,LED Floodlight,EM2103.2W,1200,,,,,
LED T8 Tube Light 20W Daylight (Aluminium Body),LED Tube,OPT82001DL,550,,,,,
LED T8 Tube Light 20W Daylight 4' (Plastic Body),LED Tube,CNT82001DL,450,,,,,
LED T8 Tube Light 10W Daylight 2' (Plastic Body),LED Tube,CNT81001DL,350,,,,,
1 x 20W T8 LED Industrial Shade (SS Reflector),LED Tube,EP201ISDSS,500,,,,,
1 x 20W T8 LED Industrial Shade (PC Reflector),LED Tube,EP201ISDPC,400,,,,,
2 x 20W T8 LED Industrial Shade 4' (SS Reflector),LED Tube,EP202ISD-SS,700,,,,,
2 x 20W T8 LED Industrial Shade 4' (PC Reflector),LED Tube,EP202ISD-PC,500,,,,,
3 x 20W T8 LED Industrial Shade (SS Reflector),LED Tube,EP203ISDSS,850,,,,,
3 x 20W T8 LED Industrial Shade (PC Reflector),LED Tube,EP203ISDPC,700,,,,,
5 Point Extension Socket,Energypac Extension Socket,E30520,750,,,,,
4 Point Extension Socket,Energypac Extension Socket,E40413,650,,,,,
3 Point + 2 USB Extension Socket,Energypac Extension Socket,E3USB13,750,,,,,
Batten Holder - Pin,Energypac Electrical Accessories,A3L3,70,,,,,
Batten Holder - Thread,Energypac Electrical Accessories,A3L4,70,,,,,
13A 3 Pin Plug - Flat,Energypac Electrical Accessories,E313PL,90,,,,,
13A 2 Pin Converter,Energypac Electrical Accessories,E313C,50,,,,,
10/60A Single Phase Energy Meter,Energypac Electrical Accessories,EG11,1150,,,,,
10/60A Single Phase Double Neutral Missing Meter ,Energypac Electrical Accessories,EG12,1250,,,,,
1 Gang 1 Way Switch,Legrand Belanko Switches & Sockets,617000,195,,,,,
2 Gang 1 Way Switch,Legrand Belanko Switches & Sockets,617002,335,,,,,
3 Gang 1 Way Switch,Legrand Belanko Switches & Sockets,617004,450,,,,,
4 Gang 1 Way Switch,Legrand Belanko Switches & Sockets,617006,725,,,,,
Fan controller,Legrand Belanko Switches & Sockets,617033,1200,,,,,
Light Dimmer,Legrand Belanko Switches & Sockets,617030,1800,,,,,
Bell Push,Legrand Belanko Switches & Sockets,617011,450,,,,,
2 Pin Socket + Switch,Legrand Belanko Switches & Sockets,617061,600,,,,,
13A 3 Pin Socket + Switch,Legrand Belanko Switches & Sockets,617041,400,,,,,
15A 3 Pin Socket + switch,Legrand Belanko Switches & Sockets,617051,550,,,,,
20A DP Switch,Legrand Belanko Switches & Sockets,617071,650,,,,,
TV Socket,Legrand Belanko Switches & Sockets,617121,500,,,,,
Telephone Socket - RJ11,Legrand Belanko Switches & Sockets,617097,450,,,,,
Data Socket - RJ45,Legrand Belanko Switches & Sockets,617090,950,,,,,
Data Socket - RJ45 Cat 6,Legrand Belanko Switches & Sockets,617091,1650,,,,,
Fan Dimmer with out Switch,Legrand Belanko Switches & Sockets,101B,750,,,,,
Fan Dimmer with out Switch,Legrand Belanko Switches & Sockets,101BC,950,,,,,
Blanking Plate,Legrand Belanko Switches & Sockets,617128,160,,,,,
Multi Standard Socket,Legrand Belanko Switches & Sockets,617067,1300,,,,,
1 gang 1 way Switch,Legrand Synergy Switches & Sockets,730000,175,,,,,
1 gang 2 way switch,Legrand Synergy Switches & Sockets,730001,225,,,,,
2 gang 1 way switch,Legrand Synergy Switches & Sockets,730024,320,,,,,
2 gang 2 way switch,Legrand Synergy Switches & Sockets,730002,385,,,,,
3 gang 1 way switch,Legrand Synergy Switches & Sockets,730124,420,,,,,
3 gang 2 way switch,Legrand Synergy Switches & Sockets,730003,550,,,,,
4 gang 2 way switch,Legrand Synergy Switches & Sockets,730004,700,,,,,
6 gang 2 way switch,Legrand Synergy Switches & Sockets,730006,1000,,,,,
Bell Push,Legrand Synergy Switches & Sockets,730107,390,,,,,
2 pin socket + switch,Legrand Synergy Switches & Sockets,730082,650,,,,,
13 A 3 Pin Socket + Switch,Legrand Synergy Switches & Sockets,730066,420,,,,,
13 A 3 pin socket + switch (double),Legrand Synergy Switches & Sockets,730076,850,,,,,
15 A 3 pin socket + switch,Legrand Synergy Switches & Sockets,730089,640,,,,,
5A 3 Pin Socket + Switch,Legrand Synergy Switches & Sockets,730069,500,,,,,
13 A 3 pin + 16A 2 pin,Legrand Synergy Switches & Sockets,730084,750,,,,,
20 A DP switch with Red Led,Legrand Synergy Switches & Sockets,730012,750,,,,,
Tv socket,Legrand Synergy Switches & Sockets,730040,600,,,,,
Telephone Socket RJ 11/12,Legrand Synergy Switches & Sockets,730054,780,,,,,
Data Socket RJ 45,Legrand Synergy Switches & Sockets,730056,1250,,,,,
Fan Dimmer without Switch,Legrand Synergy Switches & Sockets,101S,450,,,,,
Blank Plate,Legrand Synergy Switches & Sockets,730095,125,,,,,
1 Gang 1 Way Switch,Legrand Mallia (White) Switches & Sockets,281000,320,,,,,
1 Gang 2 Way Switch ,Legrand Mallia (White) Switches & Sockets,281001,370,,,,,
2 Gang 1 Way Switch ,Legrand Mallia (White) Switches & Sockets,281002,500,,,,,
2 Gang 2 Way Switch ,Legrand Mallia (White) Switches & Sockets,281003,620,,,,,
3 Gang 1 Way Switch,Legrand Mallia (White) Switches & Sockets,281004,650,,,,,
3 Gang 2 Way Switch ,Legrand Mallia (White) Switches & Sockets,281005,750,,,,,
4 Gang 1 Way Switch,Legrand Mallia (White) Switches & Sockets,281006,900,,,,,
Bell Push,Legrand Mallia (White) Switches & Sockets,281040,480,,,,,
20A DP Switch with Red LED,Legrand Mallia (White) Switches & Sockets,281061,850,,,,,
Fan Controller,Legrand Mallia (White) Switches & Sockets,281081,2350,,,,,
Light Dimmer 500W + 2 Way Switch,Legrand Mallia (White) Switches & Sockets,281084,1950,,,,,
2 Pin Socket + Switch,Legrand Mallia (White) Switches & Sockets,281101,565,,,,,
13A Socket + Switch,Legrand Mallia (White) Switches & Sockets,281111,520,,,,,
13A Socket + Switch + LED,Legrand Mallia (White) Switches & Sockets,281114,600,,,,,
13A Socket + Switch Double + LED,Legrand Mallia (White) Switches & Sockets,281113,800,,,,,
15A Socket + Swich,Legrand Mallia (White) Switches & Sockets,281128,620,,,,,
TV Socket,Legrand Mallia (White) Switches & Sockets,281151,400,,,,,
Telephone Socket RJ11,Legrand Mallia (White) Switches & Sockets,281160,620,,,,,
Multi Standard Socket,Legrand Mallia (White) Switches & Sockets,281120,1300,,,,,
Data Socket RJ45,Legrand Mallia (White) Switches & Sockets,281161,715,,,,,
Data Socket - RJ45 6 Socket,Legrand Mallia (White) Switches & Sockets,281162,1400,,,,,
6 A     MCB   (SP) - 10kA,Legrand Brand - Protection Device,408587,330,,,,,
10 A   MCB   (SP) -10kA,Legrand Brand - Protection Device,408590,330,,,,,
16 A   MCB   (SP) - 10kA,Legrand Brand - Protection Device,408592,330,,,,,
20 A   MCB   (SP) - 10kA,Legrand Brand - Protection Device,408593,330,,,,,
25 A   MCB   (SP) - 10kA,Legrand Brand - Protection Device,408594,330,,,,,
32 A   MCB   (SP) - 10kA,Legrand Brand - Protection Device,408595,330,,,,,
40 A   MCB   (SP) - 10kA,Legrand Brand - Protection Device,408596,330,,,,,
50 A   MCB   (SP) - 10kA,Legrand Brand - Protection Device,408597,490,,,,,
63 A   MCB   (SP) - 10kA,Legrand Brand - Protection Device,408598,490,,,,,
6 A     MCB   (DP) - 10kA,Legrand Brand - Protection Device,408628,920,,,,,
10 A   MCB   (DP) -10kA,Legrand Brand - Protection Device,408631,920,,,,,
16 A   MCB   (DP) - 10kA,Legrand Brand - Protection Device,408633,920,,,,,
20 A   MCB   (DP) - 10kA,Legrand Brand - Protection Device,408634,920,,,,,
25 A   MCB   (DP) -10kA,Legrand Brand - Protection Device,408635,920,,,,,
32 A   MCB   (DP) - 10kA,Legrand Brand - Protection Device,408636,920,,,,,
40 A   MCB   (DP) - 10kA,Legrand Brand - Protection Device,408637,920,,,,,
50 A   MCB   (DP) - 10kA,Legrand Brand - Protection Device,408638,1300,,,,,
63 A   MCB   (DP) - 10kA,Legrand Brand - Protection Device,408639,1300,,,,,
6 A     MCB   (TP) - 10kA,Legrand Brand - Protection Device,408650,1550,,,,,
10 A   MCB   (TP) - 10kA,Legrand Brand - Protection Device,408653,1550,,,,,
16 A   MCB  (TP) - 10kA,Legrand Brand - Protection Device,408655,1550,,,,,
20 A   MCB  (TP) - 10kA,Legrand Brand - Protection Device,408656,1550,,,,,
25 A   MCB  (TP) - 10kA,Legrand Brand - Protection Device,408657,1550,,,,,
32 A   MCB  (TP) - 10kA,Legrand Brand - Protection Device,408658,1550,,,,,
40 A   MCB  (TP) - 10kA,Legrand Brand - Protection Device,408659,1550,,,,,
50 A   MCB  (TP) - 10kA,Legrand Brand - Protection Device,3456,1800,,,,,
63 A   MCB  (TP) - 10kA,Legrand Brand - Protection Device,408661,2150,,,,,
25 A      MCCB  (TP) - Adjustable - 16kA,Legrand Brand - Protection Device,420001,7000,,,,,
40 A      MCCB  (TP) - Adjustable - 16kA,Legrand Brand - Protection Device,420002,7000,,,,,
63 A      MCCB  (TP) - Adjustable - 16kA,Legrand Brand - Protection Device,420003,7000,,,,,
100 A     MCCB  (TP) - Adjustable - 16kA,Legrand Brand - Protection Device,420005,7000,,,,,
125 A     MCCB  (TP) - Adjustable - 16kA,Legrand Brand - Protection Device,420006,8800,,,,,
40 A       MCCB  (TP) - Adjustable - 25kA,Legrand Brand - Protection Device,420042,7700,,,,,
63 A       MCCB  (TP) - Adjustable - 25kA,Legrand Brand - Protection Device,420043,7700,,,,,
100 A     MCCB  (TP) - Adjustable - 25kA,Legrand Brand - Protection Device,420045,7700,,,,,
125 A     MCCB  (TP) - Adjustable - 25kA,Legrand Brand - Protection Device,420046,10000,,,,,
160 A     MCCB  (TP) - Adjustable - 36kA,Legrand Brand - Protection Device,420087,12500,,,,,
250 A     MCCB  (TP) - Adjustable - 36kA,Legrand Brand - Protection Device,420239,15000,,,,,
320 A     MCCB  (TP) - Adjustable - 36kA,Legrand Brand - Protection Device,422001,35000,,,,,
400 A     MCCB  (TP) - Adjustable - 36kA,Legrand Brand - Protection Device,422002,39000,,,,,
500 A     MCCB  (TP) - Adjustable - 36kA,Legrand Brand - Protection Device,422003,40000,,,,,
630 A      MCCB (TP) - Adjustable - 36kA,Legrand Brand - Protection Device,422018,45000,,,,,
800 A    MCCB  (TP) - Adjustable - 50kA,Legrand Brand - Protection Device,422264,90000,,,,,
1000 A   MCCB  (TP) - Adjustable - 50kA,Legrand Brand - Protection Device,422265,104000,,,,,
1250 A   MCCB  (TP) - Adjustable - 50kA,Legrand Brand - Protection Device,422266,110000,,,,,
1600A    MCCB   (TP) - Adjustable - 50kA,Legrand Brand - Protection Device,25704,155000,,,,,
800 A,Legrand Brand ACB Price,28621,122000,,,,,
800 A,Legrand Brand ACB Price,28641,138000,,,,,
1000 A,Legrand Brand ACB Price,28642,148000,,,,,
1250 A,Legrand Brand ACB Price,28643,150000,,,,,
1600 A,Legrand Brand ACB Price,28644,152000,,,,,
2000 A,Legrand Brand ACB Price,28645,155000,,,,,
2500 A,Legrand Brand ACB Price,28646,235000,,,,,
3200 A,Legrand Brand ACB Price,28647,300000,,,,,
4000 A,Legrand Brand ACB Price,28648,425000,,,,,
Closing Coil - 230V AC,Legrand Brand ACB Price,28844,11600,,,,,
Shunt Trip - 230V AC,Legrand Brand ACB Price,28851,11600,,,,,
Under Voltage Release - 230V AC,Legrand Brand ACB Price,28858,21000,,,,,
Motor Operator / Gear Motor - 230V AC/DC,Legrand Brand ACB Price,28837,48000,,,,,
LCD Display (MP4) LSI,Legrand Brand ACB Price,28801,28000,,,,,
LCD Display (MP4) LSIG,Legrand Brand ACB Price,28802,52000,,,,,
2 kV Voltage Surge Protector - 4P - 70 kA,Voltage Surge Protector,3923,20000,,,,,
16 A 3 Pin Socket (Surface-250V) IP 44,"Industrial Plug-Socket, Legrand Brand (IP46,67)",55553,1400,,,,,
16 A 3 Pin Plug-250V IP 44,"Industrial Plug-Socket, Legrand Brand (IP46,67)",57434,850,,,,,
32 A 3 Pin Socket (Surface-250V) IP 44,"Industrial Plug-Socket, Legrand Brand (IP46,67)",55573,1600,,,,,
32 A 3 Pin Plug-250V IP 44,"Industrial Plug-Socket, Legrand Brand (IP46,67)",58134,900,,,,,
63 A 5 Pin Socket (Surface) IP 67,"Industrial Plug-Socket, Legrand Brand (IP46,67)",58745,7000,,,,,
63 A 5 Pin Plug IP 67,"Industrial Plug-Socket, Legrand Brand (IP46,67)",58705,4500,,,,,
6A    MCB  SP - 4.5kA,Sassin Circuit Breaker,3SB1-63-C6-SP,145,,,,,
10A  MCB  SP - 4.5kA,Sassin Circuit Breaker,3SB1-63-C10-SP,145,,,,,
16A  MCB  SP - 4.5kA,Sassin Circuit Breaker,3SB1-63-C16-SP,145,,,,,
20A  MCB  SP - 4.5kA,Sassin Circuit Breaker,3SB1-63-C20-SP,145,,,,,
25A  MCB  SP - 4.5kA,Sassin Circuit Breaker,3SB1-63-C25-SP,145,,,,,
32A  MCB  SP - 4.5kA,Sassin Circuit Breaker,3SB1-63-C32-SP,145,,,,,
40A  MCB  SP - 4.5kA,Sassin Circuit Breaker,3SB1-63-C40-SP,145,,,,,
50A  MCB  SP - 4.5kA,Sassin Circuit Breaker,3SB1-63-C50-SP,165,,,,,
63A  MCB  SP - 4.5kA,Sassin Circuit Breaker,3SB1-63-C63-SP,165,,,,,
10A  MCB  DP - 4.5kA,Sassin Circuit Breaker,3SB1-63-C10-DP,280,,,,,
16A  MCB  DP - 4.5kA,Sassin Circuit Breaker,3SB1-63-C16-DP,280,,,,,
20A  MCB  DP - 4.5kA,Sassin Circuit Breaker,3SB1-63-C20-DP,280,,,,,
25A  MCB  DP - 4.5kA,Sassin Circuit Breaker,3SB1-63-C25-DP,280,,,,,
32A  MCB  DP - 4.5kA,Sassin Circuit Breaker,3SB1-63-C32-DP,280,,,,,
40A  MCB  DP - 4.5kA,Sassin Circuit Breaker,3SB1-63-C40-DP,280,,,,,
50A  MCB  DP - 4.5kA,Sassin Circuit Breaker,3SB1-63-C50-DP,360,,,,,
63A  MCB  DP - 4.5kA,Sassin Circuit Breaker,3SB1-63-C63-DP,360,,,,,
6A    MCB  TP - 4.5kA,Sassin Circuit Breaker,3SB1-63-C6-TP,500,,,,,
10A  MCB  TP - 4.5kA,Sassin Circuit Breaker,3SB1-63-C10-TP,500,,,,,
16A  MCB  TP - 4.5kA,Sassin Circuit Breaker,3SB1-63-C16-TP,500,,,,,
20A  MCB  TP - 4.5kA,Sassin Circuit Breaker,3SB1-63-C20-TP,500,,,,,
25A  MCB  TP - 4.5kA,Sassin Circuit Breaker,3SB1-63-C25-TP,500,,,,,
32A  MCB  TP - 4.5kA,Sassin Circuit Breaker,3SB1-63-C32-TP,500,,,,,
40A  MCB  TP - 4.5kA,Sassin Circuit Breaker,3SB1-63-C40-TP,500,,,,,
50A  MCB  TP - 4.5kA,Sassin Circuit Breaker,3SB1-63-C50-TP,550,,,,,
63A  MCB  TP - 4.5kA,Sassin Circuit Breaker,3SB1-63-C63-TP,550,,,,,
3P 25A MCCB 20KA  adjustable,Sassin Circuit Breaker,3SM29-160-T25,3600,,,,,
3P 40A MCCB 20KA adjustable,Sassin Circuit Breaker,3SM29-160-T40,3600,,,,,
3P 63A MCCB 20KA  adjustable,Sassin Circuit Breaker,3SM29-160-T63,3600,,,,,
3P 100A MCCB 20KA   adjustable,Sassin Circuit Breaker,3SM29-160-T100,4000,,,,,
3P 125A MCCB 20KA  adjustable,Sassin Circuit Breaker,3SM29-160-T125,4000,,,,,
3P 160A MCCB 35KA  adjustable,Sassin Circuit Breaker,3SM29-160-T160,4000,,,,,
3P 200A MCCB 50KA - fixed type,Sassin Circuit Breaker,3SM8-225M-T200,5500,,,,,
3P 315A MCCB 65KA - fixed type,Sassin Circuit Breaker,3SM8-400M-T315,11000,,,,,
3P 400A  MCCB 65KA - fixed type,Sassin Circuit Breaker,3SM8-400M-T400,11800,,,,,
3P 500A  MCCB 65KA - fixed type,Sassin Circuit Breaker,3SM8-630M-T500,18000,,,,,
2P 25A RCCB 100mA Electromagnetic AC Type,Sassin Circuit Breaker,3SL52-R25-DP,900,,,,,
2P 40A RCCB 100mA Electromagnetic AC Type,Sassin Circuit Breaker,3SL52-R40-DP,900,,,,,
2P 63A RCCB 100mA Electromagnetic AC Type,Sassin Circuit Breaker,3SL52-R63-DP,1050,,,,,
8way Concealed mounting and Opaque cover ,Sassin Distribution Box,3SD5-O8,500,,,,,
8way Concealed mounting and Transparent cover ,Sassin Distribution Box,3SD5-T8,500,,,,,
8way Concealed mounting and Opaque cover metal bod,Sassin Distribution Box,3SD5T-MO8,950,,,,,
18way Concealed mounting and Opaque cover metal bo,Sassin Distribution Box,3SD5T-MO18  ,1450,,,,,
18way Concealed mounting and Transparent cover met,Sassin Distribution Box,3SD5T-MT18,1450,,,,,
1 Gang 1 Way Switch(DT Silver),EG 2 Dark Silver & Silver Switches & Sockets,MGS2001/G,190,,,,,
1 Gang 1 Way Switch(Silver),EG 2 Dark Silver & Silver Switches & Sockets,MGS3001/S,190,,,,,
1 Gang 2 Way Switch(DT Silver),EG 2 Dark Silver & Silver Switches & Sockets,MGS2002/G,215,,,,,
1 Gang 2 Way Switch(Silver),EG 2 Dark Silver & Silver Switches & Sockets,MGS3002/S,215,,,,,
2 Gang 1 Way Switch(DT Silver),EG 2 Dark Silver & Silver Switches & Sockets,MGS2003/G,240,,,,,
2 Gang 1 Way Switch(Silver),EG 2 Dark Silver & Silver Switches & Sockets,MGS3003/S,240,,,,,
2 Gang 2 Way Switch (DT Silver),EG 2 Dark Silver & Silver Switches & Sockets,MGS2004/G,270,,,,,
2 Gang 2 Way Switch (Silver),EG 2 Dark Silver & Silver Switches & Sockets,MGS3004/S,270,,,,,
3 Gang 1 Way Switch (DT Silver),EG 2 Dark Silver & Silver Switches & Sockets,MGS2005/G,320,,,,,
3 Gang 1 Way Switch (Silver),EG 2 Dark Silver & Silver Switches & Sockets,MGS3005/S,320,,,,,
4 Gang 1 Way Switch(DT Silver),EG 2 Dark Silver & Silver Switches & Sockets,MGS2036/G,375,,,,,
4 Gang 1 Way Switch(Silver),EG 2 Dark Silver & Silver Switches & Sockets,MGS3036/S,375,,,,,
Universal Socket + Switch(DT Silver),EG 2 Dark Silver & Silver Switches & Sockets,MGS2044/G,400,,,,,
Universal Socket + Switch(Silver),EG 2 Dark Silver & Silver Switches & Sockets,MGS3044/S,400,,,,,
Universal Socket + with USB(DT Silver),EG 2 Dark Silver & Silver Switches & Sockets,MGS2040/G,600,,,,,
Universal Socket + with USB(Silver),EG 2 Dark Silver & Silver Switches & Sockets,MGS3040/S,600,,,,,
2 Pin Socket with Switch(DT Silver),EG 2 Dark Silver & Silver Switches & Sockets,MGS2051/G,265,,,,,
2 Pin Socket with Switch(Silver),EG 2 Dark Silver & Silver Switches & Sockets,MGS3051/S,265,,,,,
13A 3 Pin Socket with Switch(DT Silver),EG 2 Dark Silver & Silver Switches & Sockets,MGS2034/G,355,,,,,
13A 3 Pin Socket with Switch(Silver),EG 2 Dark Silver & Silver Switches & Sockets,MGS3034/S,355,,,,,
15A 3 Pin Socket with Switch(DT Silver),EG 2 Dark Silver & Silver Switches & Sockets,MGS2052/G,355,,,,,
15A 3 Pin Socket with Switch(Silver),EG 2 Dark Silver & Silver Switches & Sockets,MGS3052/S,355,,,,,
Fan Speed Controller(DT Silver),EG 2 Dark Silver & Silver Switches & Sockets,MGS2019/G,475,,,,,
Fan Speed Controller(Silver),EG 2 Dark Silver & Silver Switches & Sockets,MGS3019/S,475,,,,,
45A DP Switch(DT Silver),EG 2 Dark Silver & Silver Switches & Sockets,MGS2050/G,800,,,,,
45A DP Switch(Silver),EG 2 Dark Silver & Silver Switches & Sockets,MGS3050/S,800,,,,,
Telephone Socket (DT Silver),EG 2 Dark Silver & Silver Switches & Sockets,MGS2025/G,275,,,,,
Telephone Socket (Silver),EG 2 Dark Silver & Silver Switches & Sockets,MGS3025/S,275,,,,,
Data Socket  ,EG 2 Dark Silver & Silver Switches & Sockets,MGS2027/G,350,,,,,
Data Socket  ,EG 2 Dark Silver & Silver Switches & Sockets,MGS3027/S,350,,,,,
Bell Push(DT Silver),EG 2 Dark Silver & Silver Switches & Sockets,MGS2007/G,210,,,,,
Bell Push(Silver),EG 2 Dark Silver & Silver Switches & Sockets,MGS3007/S,210,,,,,
TV Socket(DT Silver),EG 2 Dark Silver & Silver Switches & Sockets,MGS2021/G,235,,,,,
TV Socket(Silver),EG 2 Dark Silver & Silver Switches & Sockets,MGS3021/S,235,,,,,
Blank Plate(DT Silver),EG 2 Dark Silver & Silver Switches & Sockets,MGS2039/G,110,,,,,
Blank Plate(Silver),EG 2 Dark Silver & Silver Switches & Sockets,MGS3039/S,110,,,,,
LED Bulb 24W,EG 2 Dark Silver & Silver Switches & Sockets,BL2403,475,,,,,
LED Bulb 28W,EG 2 Dark Silver & Silver Switches & Sockets,OLP2802DT,1380,,,,,
LED Bulb 40W,EG 2 Dark Silver & Silver Switches & Sockets,BL4002,895,,,,,
LED Bulb 40W,EG 2 Dark Silver & Silver Switches & Sockets,BL4004,895,,,,,
LED Bulb 50W,EG 2 Dark Silver & Silver Switches & Sockets,BL5002,1175,,,,,
LED Bulb 50W,EG 2 Dark Silver & Silver Switches & Sockets,BL5004,1175,,,,,
LED Bulb 5W Daylight  (Pin),LED Bulb,ELP0501DL ,150,,,,,
LED Bulb 5W Daylight  (Thread),LED Bulb,ELP0502DL,150,,,,,
LED Bulb 5W Warmlight  (Pin),LED Bulb,ELP0503WL ,150,,,,,
LED Bulb 5W Warmlight  (Thread),LED Bulb,ELP0504WL,150,,,,,
LED Bulb 7W Daylight  (Pin),LED Bulb,ELP0701DL ,180,,,,,
LED Bulb 7W Daylight  (Thread),LED Bulb,ELP0702DL,180,,,,,
LED Bulb 7W Warmlight  (Pin),LED Bulb,ELP0703WL ,180,,,,,
LED Bulb 7W Warmlight  (Thread),LED Bulb,ELP0704WL,180,,,,,
LED Bulb 9W Daylight  (Pin),LED Bulb,OLP0901DL ,200,,,,,
LED Bulb 9W Daylight  (Thread),LED Bulb,OLP0902DL,200,,,,,
LED Bulb 9W Warmlight  (Pin),LED Bulb,ELP0903WL ,200,,,,,
LED Bulb 9W Warmlight  (Thread),LED Bulb,ELP0904WL,200,,,,,
LED Bulb 12W Daylight  (Pin),LED Bulb,CNP1201DL ,275,,,,,
LED Bulb 12W Daylight  (Thread),LED Bulb,CNP1202DL,275,,,,,
LED Bulb 14W,LED Bulb,OLP1401DL ,310,,,,,
LED Bulb 14W,LED Bulb,OLP1402DT,310,,,,,
LED Bulb 15W,LED Bulb,CNP1501DL ,330,,,,,
LED Bulb 15W,LED Bulb,CNP1502DL,330,,,,,
LED Bulb 15W,LED Bulb,CNP1503WL ,330,,,,,
LED Bulb 15W,LED Bulb,CNP1504WL,330,,,,,
LED Bulb 20W,LED Bulb,CNP2001DL ,360,,,,,
LED Bulb 20W,LED Bulb,CNP2002DL,360,,,,,
LED Bulb 20W,LED Bulb,CNP2003WL ,360,,,,,
LED Bulb 20W,LED Bulb,CNP2004WL,360,,,,,
LED Bulb 24W,LED Bulb,BL2401 ,475,,,,,
LED Bulb 24W,LED Bulb,BL2402,475,,,,,
LED Bulb 7W Tunable  (Pin),LED Bulb,ELT0701 ,300,,,,,
LED Bulb 7W Tunable  (Thread),LED Bulb,ELT0702,300,,,,,
LED Bulb 9W Tunable  (Pin),LED Bulb,ELT0901 ,350,,,,,
LED Bulb 9W Tunable  (Thread),LED Bulb,ELT0902,350,,,,,
LED Slim Down Light 6W 6000K - Square,LED Panel Light,ELSDL0601 ,495,,,,,
LED Slim Down Light 12W 6000K - Square,LED Panel Light,ELSDL1201 ,675,,,,,
LED Slim Down Light 18W 6000K - Square,LED Panel Light,ELSDL1801 ,775,,,,,
LED Slim Down Light 6W 6000K -  Round,LED Panel Light,ELSDL0602,495,,,,,
LED Slim Down Light 12W 6000K -  Round,LED Panel Light,ELSDL1202,675,,,,,
LED Slim Down Light 18W 6000K -  Round,LED Panel Light,ELSDL1802,775,,,,,
LED Slim,LED Panel Light,EPSPL10W,400,,,,,
LED,LED Panel Light,EPSPL20W,600,,,,,
LED,LED Panel Light,EPSPL36W,800,,,,,
LED Slim Panel Light 36W - 2' x 2' ,LED Panel Light,ELPB36DL,3500,,,,,
Blank Plate Silver,Legrand Mallia (Silver & Dark Silver) Switches & Sockets,283190,350,,,,,
1 Gang 1 Way Switch(Dark Silver),Legrand Mallia (Silver & Dark Silver) Switches & Sockets,283000,450,,,,,
1 Gang 1 Way Switch(Silver),Legrand Mallia (Silver & Dark Silver) Switches & Sockets,283400,450,,,,,
2 Gang 1 Way Switch (Dark Silver),Legrand Mallia (Silver & Dark Silver) Switches & Sockets,283002,650,,,,,
2 Gang 1 Way Switch (Silver),Legrand Mallia (Silver & Dark Silver) Switches & Sockets,283402,650,,,,,
3 Gang 1 Way Switch(Dark Silver),Legrand Mallia (Silver & Dark Silver) Switches & Sockets,283004,800,,,,,
3 Gang 1 Way Switch(Silver),Legrand Mallia (Silver & Dark Silver) Switches & Sockets,283404,800,,,,,
4 Gang 1 Way Switch(Dark Silver),Legrand Mallia (Silver & Dark Silver) Switches & Sockets,283006,1080,,,,,
4 Gang 1 Way Switch(Silver),Legrand Mallia (Silver & Dark Silver) Switches & Sockets,283406,1080,,,,,
Bell Push(Dark Silver),Legrand Mallia (Silver & Dark Silver) Switches & Sockets,281240,575,,,,,
Bell Push(Silver),Legrand Mallia (Silver & Dark Silver) Switches & Sockets,283440,575,,,,,
20A DP Switch with Red LED(Dark Silver),Legrand Mallia (Silver & Dark Silver) Switches & Sockets,283061,1100,,,,,
20A DP Switch with Red LED(Silver),Legrand Mallia (Silver & Dark Silver) Switches & Sockets,283461,1100,,,,,
Fan Controller(Dark Silver),Legrand Mallia (Silver & Dark Silver) Switches & Sockets,283081,3000,,,,,
Fan Controller(Silver),Legrand Mallia (Silver & Dark Silver) Switches & Sockets,283481,3000,,,,,
Light Dimmer 500W + 2 Way Switch(Dark Silver),Legrand Mallia (Silver & Dark Silver) Switches & Sockets,281284,2300,,,,,
Light Dimmer 500W + 2 Way Switch(Silver),Legrand Mallia (Silver & Dark Silver) Switches & Sockets,283484,2300,,,,,
2 Pin Socket + Switch(Dark Silver),Legrand Mallia (Silver & Dark Silver) Switches & Sockets,283101,700,,,,,
2 Pin Socket + Switch(Silver),Legrand Mallia (Silver & Dark Silver) Switches & Sockets,283501,700,,,,,
13A Socket + Switch(Dark Silver),Legrand Mallia (Silver & Dark Silver) Switches & Sockets,283111,670,,,,,
13A Socket + Switch(Silver),Legrand Mallia (Silver & Dark Silver) Switches & Sockets,283511,670,,,,,
13A Socket + Switch - Double(Dark Silver),Legrand Mallia (Silver & Dark Silver) Switches & Sockets,281313,1050,,,,,
13A Socket + Switch - Double(Silver),Legrand Mallia (Silver & Dark Silver) Switches & Sockets,283513,1050,,,,,
13A Socket + Switch + LED(Dark Silver),Legrand Mallia (Silver & Dark Silver) Switches & Sockets,283114,800,,,,,
13A Socket + Switch + LED(Silver),Legrand Mallia (Silver & Dark Silver) Switches & Sockets,283514,800,,,,,
15A Socket + Swich(Dark Silver),Legrand Mallia (Silver & Dark Silver) Switches & Sockets,283128,750,,,,,
15A Socket + Swich(Silver),Legrand Mallia (Silver & Dark Silver) Switches & Sockets,283528,750,,,,,
15A Socket + Swich + LED(Dark Silver),Legrand Mallia (Silver & Dark Silver) Switches & Sockets,281329,1100,,,,,
15A Socket + Swich + LED(Silver),Legrand Mallia (Silver & Dark Silver) Switches & Sockets,283529,1100,,,,,
TV Socket(Dark Silver),Legrand Mallia (Silver & Dark Silver) Switches & Sockets,283151,460,,,,,
TV Socket(Silver),Legrand Mallia (Silver & Dark Silver) Switches & Sockets,283551,460,,,,,
Telephone Socket RJ11(Dark Silver),Legrand Mallia (Silver & Dark Silver) Switches & Sockets,283160,700,,,,,
Telephone Socket RJ11(Silver),Legrand Mallia (Silver & Dark Silver) Switches & Sockets,283560,700,,,,,
Data Socket RJ45(Dark Silver),Legrand Mallia (Silver & Dark Silver) Switches & Sockets,283161,860,,,,,
Data Socket RJ45(Silver),Legrand Mallia (Silver & Dark Silver) Switches & Sockets,283561,860,,,,,
Cover(Dark Silver),Legrand Mallia (Silver & Dark Silver) Switches & Sockets,281905,0,,,,,
Cover(Silver),Legrand Mallia (Silver & Dark Silver) Switches & Sockets,281955,0,,,,,
Multi Socket(Dark Silver),Legrand Mallia (Silver & Dark Silver) Switches & Sockets,283120,1850,,,,,
Multi Socket(Silver),Legrand Mallia (Silver & Dark Silver) Switches & Sockets,283520,1850,,,,,
